H:\desafio\src\test\java\com\carlos\core\RestAssuredCore.java
H:\desafio\src\test\java\com\carlos\model\Simulacao.java
H:\desafio\src\test\java\com\carlos\steps\SimulacaoSteps.java
H:\desafio\src\test\java\com\carlos\suite\Debug.java
H:\desafio\src\test\java\com\carlos\core\CucumberConfig.java
H:\desafio\src\test\java\com\carlos\core\ValorDeserializer.java
H:\desafio\src\test\java\com\carlos\core\StepException.java
H:\desafio\src\test\java\com\carlos\suite\Suite.java
H:\desafio\src\test\java\com\carlos\steps\DefaultSteps.java
H:\desafio\src\test\java\com\carlos\steps\RestricoesSteps.java
